[
    {
        "model": "core.governmentdomain",
        "pk": 1,
        "fields": {
            "name": ".amsterdam",
            "email_domain": ".amsterdam.nl"
        }
    },
    {
        "model": "core.governmentdomain",
        "pk": 2,
        "fields": {
            "name": ".rotterdam",
            "email_domain": ".rotterdam.nl"
        }
    },
    {
        "model": "core.governmentdomain",
        "pk": 3,
        "fields": {
            "name": "DLG",
            "email_domain": "dlg.nl"
        }
    },
    {
        "model": "core.governmentdomain",
        "pk": 4,
        "fields": {
            "name": "Nationaalarchief",
            "email_domain": "nationaalarchief.nl"
        }
    },
    {
        "model": "core.governmentdomain",
        "pk": 5,
        "fields": {
            "name": "ProRail",
            "email_domain": "prorail.nl"
        }
    },
    {
        "model": "core.governmentdomain",
        "pk": 6,
        "fields": {
            "name": "Zutphen",
            "email_domain": "zutphen.nl"
        }
    },
    {
        "model": "core.governmentdomain",
        "pk": 7,
        "fields": {
            "name": "aaenhunze",
            "email_domain": "aaenhunze.nl"
        }
    },
    {
        "model": "core.governmentdomain",
        "pk": 8,
        "fields": {
            "name": "aalburg",
            "email_domain": "aalburg.nl"
        }
    },
    {
        "model": "core.governmentdomain",
        "pk": 9,
        "fields": {
            "name": "aalsmeer",
            "email_domain": "aalsmeer.nl"
        }
    },
    {
        "model": "core.governmentdomain",
        "pk": 10,
        "fields": {
            "name": "aalten",
            "email_domain": "aalten.nl"
        }
    },
    {
        "model": "core.governmentdomain",
        "pk": 11,
        "fields": {
            "name": "achtkarspelen",
            "email_domain": "achtkarspelen.nl"
        }
    },
    {
        "model": "core.governmentdomain",
        "pk": 12,
        "fields": {
            "name": "agentschapnl",
            "email_domain": "agentschapnl.nl"
        }
    },
    {
        "model": "core.governmentdomain",
        "pk": 13,
        "fields": {
            "name": "alblasserdam",
            "email_domain": "alblasserdam.nl"
        }
    },
    {
        "model": "core.governmentdomain",
        "pk": 14,
        "fields": {
            "name": "albrandswaard",
            "email_domain": "albrandswaard.nl"
        }
    },
    {
        "model": "core.governmentdomain",
        "pk": 15,
        "fields": {
            "name": "alkmaar",
            "email_domain": "alkmaar.nl"
        }
    },
    {
        "model": "core.governmentdomain",
        "pk": 16,
        "fields": {
            "name": "almelo",
            "email_domain": "almelo.nl"
        }
    },
    {
        "model": "core.governmentdomain",
        "pk": 17,
        "fields": {
            "name": "almere",
            "email_domain": "almere.nl"
        }
    },
    {
        "model": "core.governmentdomain",
        "pk": 18,
        "fields": {
            "name": "alphen-chaam",
            "email_domain": "alphen-chaam.nl"
        }
    },
    {
        "model": "core.governmentdomain",
        "pk": 19,
        "fields": {
            "name": "alphenaandenrijn",
            "email_domain": "alphenaandenrijn.nl"
        }
    },
    {
        "model": "core.governmentdomain",
        "pk": 20,
        "fields": {
            "name": "ameland",
            "email_domain": "ameland.nl"
        }
    },
    {
        "model": "core.governmentdomain",
        "pk": 21,
        "fields": {
            "name": "amersfoort",
            "email_domain": "amersfoort.nl"
        }
    },
    {
        "model": "core.governmentdomain",
        "pk": 22,
        "fields": {
            "name": "amstelveen",
            "email_domain": "amstelveen.nl"
        }
    },
    {
        "model": "core.governmentdomain",
        "pk": 23,
        "fields": {
            "name": "amsterdam",
            "email_domain": "amsterdam.nl"
        }
    },
    {
        "model": "core.governmentdomain",
        "pk": 24,
        "fields": {
            "name": "apeldoorn",
            "email_domain": "apeldoorn.nl"
        }
    },
    {
        "model": "core.governmentdomain",
        "pk": 25,
        "fields": {
            "name": "appingedam",
            "email_domain": "appingedam.nl"
        }
    },
    {
        "model": "core.governmentdomain",
        "pk": 26,
        "fields": {
            "name": "arnhem",
            "email_domain": "arnhem.nl"
        }
    },
    {
        "model": "core.governmentdomain",
        "pk": 27,
        "fields": {
            "name": "assen",
            "email_domain": "assen.nl"
        }
    },
    {
        "model": "core.governmentdomain",
        "pk": 28,
        "fields": {
            "name": "asten",
            "email_domain": "asten.nl"
        }
    },
    {
        "model": "core.governmentdomain",
        "pk": 29,
        "fields": {
            "name": "baarle-nassau",
            "email_domain": "baarle-nassau.nl"
        }
    },
    {
        "model": "core.governmentdomain",
        "pk": 30,
        "fields": {
            "name": "baarn",
            "email_domain": "baarn.nl"
        }
    },
    {
        "model": "core.governmentdomain",
        "pk": 31,
        "fields": {
            "name": "bar-organisatie",
            "email_domain": "bar-organisatie.nl"
        }
    },
    {
        "model": "core.governmentdomain",
        "pk": 32,
        "fields": {
            "name": "barendrecht",
            "email_domain": "barendrecht.nl"
        }
    },
    {
        "model": "core.governmentdomain",
        "pk": 33,
        "fields": {
            "name": "barneveld",
            "email_domain": "barneveld.nl"
        }
    },
    {
        "model": "core.governmentdomain",
        "pk": 34,
        "fields": {
            "name": "bedum",
            "email_domain": "bedum.nl"
        }
    },
    {
        "model": "core.governmentdomain",
        "pk": 35,
        "fields": {
            "name": "beemster",
            "email_domain": "beemster.nl"
        }
    },
    {
        "model": "core.governmentdomain",
        "pk": 36,
        "fields": {
            "name": "beesel",
            "email_domain": "beesel.nl"
        }
    },
    {
        "model": "core.governmentdomain",
        "pk": 37,
        "fields": {
            "name": "belastingdienst",
            "email_domain": "belastingdienst.nl"
        }
    },
    {
        "model": "core.governmentdomain",
        "pk": 38,
        "fields": {
            "name": "belcombinatie",
            "email_domain": "belcombinatie.nl"
        }
    },
    {
        "model": "core.governmentdomain",
        "pk": 39,
        "fields": {
            "name": "bellingwedde",
            "email_domain": "bellingwedde.nl"
        }
    },
    {
        "model": "core.governmentdomain",
        "pk": 40,
        "fields": {
            "name": "bergambacht",
            "email_domain": "bergambacht.nl"
        }
    },
    {
        "model": "core.governmentdomain",
        "pk": 41,
        "fields": {
            "name": "bergeijk",
            "email_domain": "bergeijk.nl"
        }
    },
    {
        "model": "core.governmentdomain",
        "pk": 42,
        "fields": {
            "name": "bergen-nh",
            "email_domain": "bergen-nh.nl"
        }
    },
    {
        "model": "core.governmentdomain",
        "pk": 43,
        "fields": {
            "name": "bergen",
            "email_domain": "bergen.nl"
        }
    },
    {
        "model": "core.governmentdomain",
        "pk": 44,
        "fields": {
            "name": "bergenopzoom",
            "email_domain": "bergenopzoom.nl"
        }
    },
    {
        "model": "core.governmentdomain",
        "pk": 45,
        "fields": {
            "name": "bernheze.org",
            "email_domain": "bernheze.org"
        }
    },
    {
        "model": "core.governmentdomain",
        "pk": 46,
        "fields": {
            "name": "beverwijk",
            "email_domain": "beverwijk.nl"
        }
    },
    {
        "model": "core.governmentdomain",
        "pk": 47,
        "fields": {
            "name": "binnenmaas",
            "email_domain": "binnenmaas.nl"
        }
    },
    {
        "model": "core.governmentdomain",
        "pk": 48,
        "fields": {
            "name": "bjaa",
            "email_domain": "bjaa.nl"
        }
    },
    {
        "model": "core.governmentdomain",
        "pk": 49,
        "fields": {
            "name": "bkwi",
            "email_domain": "bkwi.nl"
        }
    },
    {
        "model": "core.governmentdomain",
        "pk": 50,
        "fields": {
            "name": "bladel",
            "email_domain": "bladel.nl"
        }
    },
    {
        "model": "core.governmentdomain",
        "pk": 51,
        "fields": {
            "name": "blaricum",
            "email_domain": "blaricum.nl"
        }
    },
    {
        "model": "core.governmentdomain",
        "pk": 52,
        "fields": {
            "name": "bloemendaal",
            "email_domain": "bloemendaal.nl"
        }
    },
    {
        "model": "core.governmentdomain",
        "pk": 53,
        "fields": {
            "name": "boarnsterhim",
            "email_domain": "boarnsterhim.nl"
        }
    },
    {
        "model": "core.governmentdomain",
        "pk": 54,
        "fields": {
            "name": "bodegraven-reeuwijk",
            "email_domain": "bodegraven-reeuwijk.nl"
        }
    },
    {
        "model": "core.governmentdomain",
        "pk": 55,
        "fields": {
            "name": "boekel",
            "email_domain": "boekel.nl"
        }
    },
    {
        "model": "core.governmentdomain",
        "pk": 56,
        "fields": {
            "name": "borger-odoorn",
            "email_domain": "borger-odoorn.nl"
        }
    },
    {
        "model": "core.governmentdomain",
        "pk": 57,
        "fields": {
            "name": "borne",
            "email_domain": "borne.nl"
        }
    },
    {
        "model": "core.governmentdomain",
        "pk": 58,
        "fields": {
            "name": "borsele",
            "email_domain": "borsele.nl"
        }
    },
    {
        "model": "core.governmentdomain",
        "pk": 59,
        "fields": {
            "name": "boskoop",
            "email_domain": "boskoop.nl"
        }
    },
    {
        "model": "core.governmentdomain",
        "pk": 60,
        "fields": {
            "name": "boxmeer",
            "email_domain": "boxmeer.nl"
        }
    },
    {
        "model": "core.governmentdomain",
        "pk": 61,
        "fields": {
            "name": "boxtel",
            "email_domain": "boxtel.nl"
        }
    },
    {
        "model": "core.governmentdomain",
        "pk": 62,
        "fields": {
            "name": "brabant",
            "email_domain": "brabant.nl"
        }
    },
    {
        "model": "core.governmentdomain",
        "pk": 63,
        "fields": {
            "name": "brandweerkennemerland",
            "email_domain": "brandweerkennemerland.nl"
        }
    },
    {
        "model": "core.governmentdomain",
        "pk": 64,
        "fields": {
            "name": "breda",
            "email_domain": "breda.nl"
        }
    },
    {
        "model": "core.governmentdomain",
        "pk": 65,
        "fields": {
            "name": "brielle",
            "email_domain": "brielle.nl"
        }
    },
    {
        "model": "core.governmentdomain",
        "pk": 66,
        "fields": {
            "name": "bronckhorst",
            "email_domain": "bronckhorst.nl"
        }
    },
    {
        "model": "core.governmentdomain",
        "pk": 67,
        "fields": {
            "name": "brummen",
            "email_domain": "brummen.nl"
        }
    },
    {
        "model": "core.governmentdomain",
        "pk": 68,
        "fields": {
            "name": "brunssum",
            "email_domain": "brunssum.nl"
        }
    },
    {
        "model": "core.governmentdomain",
        "pk": 69,
        "fields": {
            "name": "bunnik",
            "email_domain": "bunnik.nl"
        }
    },
    {
        "model": "core.governmentdomain",
        "pk": 70,
        "fields": {
            "name": "bunschoten",
            "email_domain": "bunschoten.nl"
        }
    },
    {
        "model": "core.governmentdomain",
        "pk": 71,
        "fields": {
            "name": "buren",
            "email_domain": "buren.nl"
        }
    },
    {
        "model": "core.governmentdomain",
        "pk": 72,
        "fields": {
            "name": "bussum",
            "email_domain": "bussum.nl"
        }
    },
    {
        "model": "core.governmentdomain",
        "pk": 73,
        "fields": {
            "name": "capelleaandenijssel",
            "email_domain": "capelleaandenijssel.nl"
        }
    },
    {
        "model": "core.governmentdomain",
        "pk": 74,
        "fields": {
            "name": "castricum",
            "email_domain": "castricum.nl"
        }
    },
    {
        "model": "core.governmentdomain",
        "pk": 75,
        "fields": {
            "name": "cbr",
            "email_domain": "cbr.nl"
        }
    },
    {
        "model": "core.governmentdomain",
        "pk": 76,
        "fields": {
            "name": "cbs",
            "email_domain": "cbs.nl"
        }
    },
    {
        "model": "core.governmentdomain",
        "pk": 77,
        "fields": {
            "name": "ciz",
            "email_domain": "ciz.nl"
        }
    },
    {
        "model": "core.governmentdomain",
        "pk": 78,
        "fields": {
            "name": "cjib.minjus",
            "email_domain": "cjib.minjus.nl"
        }
    },
    {
        "model": "core.governmentdomain",
        "pk": 79,
        "fields": {
            "name": "coevorden",
            "email_domain": "coevorden.nl"
        }
    },
    {
        "model": "core.governmentdomain",
        "pk": 80,
        "fields": {
            "name": "cranendonck",
            "email_domain": "cranendonck.nl"
        }
    },
    {
        "model": "core.governmentdomain",
        "pk": 81,
        "fields": {
            "name": "cromstrijen",
            "email_domain": "cromstrijen.nl"
        }
    },
    {
        "model": "core.governmentdomain",
        "pk": 82,
        "fields": {
            "name": "ctgb",
            "email_domain": "ctgb.nl"
        }
    },
    {
        "model": "core.governmentdomain",
        "pk": 83,
        "fields": {
            "name": "cuijk",
            "email_domain": "cuijk.nl"
        }
    },
    {
        "model": "core.governmentdomain",
        "pk": 84,
        "fields": {
            "name": "culemborg",
            "email_domain": "culemborg.nl"
        }
    },
    {
        "model": "core.governmentdomain",
        "pk": 85,
        "fields": {
            "name": "cultureelerfgoed",
            "email_domain": "cultureelerfgoed.nl"
        }
    },
    {
        "model": "core.governmentdomain",
        "pk": 86,
        "fields": {
            "name": "dalfsen",
            "email_domain": "dalfsen.nl"
        }
    },
    {
        "model": "core.governmentdomain",
        "pk": 87,
        "fields": {
            "name": "dantumadiel.eu",
            "email_domain": "dantumadiel.eu"
        }
    },
    {
        "model": "core.governmentdomain",
        "pk": 88,
        "fields": {
            "name": "dcmr",
            "email_domain": "dcmr.nl"
        }
    },
    {
        "model": "core.governmentdomain",
        "pk": 89,
        "fields": {
            "name": "debilt",
            "email_domain": "debilt.nl"
        }
    },
    {
        "model": "core.governmentdomain",
        "pk": 90,
        "fields": {
            "name": "defriesemeren",
            "email_domain": "defriesemeren.nl"
        }
    },
    {
        "model": "core.governmentdomain",
        "pk": 91,
        "fields": {
            "name": "delft",
            "email_domain": "delft.nl"
        }
    },
    {
        "model": "core.governmentdomain",
        "pk": 92,
        "fields": {
            "name": "delfzijl",
            "email_domain": "delfzijl.nl"
        }
    },
    {
        "model": "core.governmentdomain",
        "pk": 93,
        "fields": {
            "name": "denhaag",
            "email_domain": "denhaag.nl"
        }
    },
    {
        "model": "core.governmentdomain",
        "pk": 94,
        "fields": {
            "name": "denhelder",
            "email_domain": "denhelder.nl"
        }
    },
    {
        "model": "core.governmentdomain",
        "pk": 95,
        "fields": {
            "name": "derondevenen",
            "email_domain": "derondevenen.nl"
        }
    },
    {
        "model": "core.governmentdomain",
        "pk": 96,
        "fields": {
            "name": "dictu",
            "email_domain": "dictu.nl"
        }
    },
    {
        "model": "core.governmentdomain",
        "pk": 97,
        "fields": {
            "name": "dinkelland",
            "email_domain": "dinkelland.nl"
        }
    },
    {
        "model": "core.governmentdomain",
        "pk": 98,
        "fields": {
            "name": "dji.minjus",
            "email_domain": "dji.minjus.nl"
        }
    },
    {
        "model": "core.governmentdomain",
        "pk": 99,
        "fields": {
            "name": "doetinchem",
            "email_domain": "doetinchem.nl"
        }
    },
    {
        "model": "core.governmentdomain",
        "pk": 100,
        "fields": {
            "name": "dongeradeel",
            "email_domain": "dongeradeel.nl"
        }
    },
    {
        "model": "core.governmentdomain",
        "pk": 101,
        "fields": {
            "name": "dordrecht",
            "email_domain": "dordrecht.nl"
        }
    },
    {
        "model": "core.governmentdomain",
        "pk": 102,
        "fields": {
            "name": "drenthe",
            "email_domain": "drenthe.nl"
        }
    },
    {
        "model": "core.governmentdomain",
        "pk": 103,
        "fields": {
            "name": "druten",
            "email_domain": "druten.nl"
        }
    },
    {
        "model": "core.governmentdomain",
        "pk": 104,
        "fields": {
            "name": "dtv.minbzk",
            "email_domain": "dtv.minbzk.nl"
        }
    },
    {
        "model": "core.governmentdomain",
        "pk": 105,
        "fields": {
            "name": "duo",
            "email_domain": "duo.nl"
        }
    },
    {
        "model": "core.governmentdomain",
        "pk": 106,
        "fields": {
            "name": "eijsden-margraten",
            "email_domain": "eijsden-margraten.nl"
        }
    },
    {
        "model": "core.governmentdomain",
        "pk": 107,
        "fields": {
            "name": "eindhoven",
            "email_domain": "eindhoven.nl"
        }
    },
    {
        "model": "core.governmentdomain",
        "pk": 108,
        "fields": {
            "name": "enschede",
            "email_domain": "enschede.nl"
        }
    },
    {
        "model": "core.governmentdomain",
        "pk": 109,
        "fields": {
            "name": "fryslan",
            "email_domain": "fryslan.nl"
        }
    },
    {
        "model": "core.governmentdomain",
        "pk": 110,
        "fields": {
            "name": "gelderland",
            "email_domain": "gelderland.nl"
        }
    },
    {
        "model": "core.governmentdomain",
        "pk": 111,
        "fields": {
            "name": "geldrop-mierlo",
            "email_domain": "geldrop-mierlo.nl"
        }
    },
    {
        "model": "core.governmentdomain",
        "pk": 112,
        "fields": {
            "name": "gemeente-mill",
            "email_domain": "gemeente-mill.nll"
        }
    },
    {
        "model": "core.governmentdomain",
        "pk": 113,
        "fields": {
            "name": "gemeente-oldambt",
            "email_domain": "gemeente-oldambt.nl"
        }
    },
    {
        "model": "core.governmentdomain",
        "pk": 114,
        "fields": {
            "name": "gemeenteberkelland",
            "email_domain": "gemeenteberkelland.nl"
        }
    },
    {
        "model": "core.governmentdomain",
        "pk": 115,
        "fields": {
            "name": "gemeentelangedijk",
            "email_domain": "gemeentelangedijk.nl"
        }
    },
    {
        "model": "core.governmentdomain",
        "pk": 116,
        "fields": {
            "name": "gemeentemolenwaard",
            "email_domain": "gemeentemolenwaard.nl"
        }
    },
    {
        "model": "core.governmentdomain",
        "pk": 117,
        "fields": {
            "name": "gemeentesudwestfryslan",
            "email_domain": "gemeentesudwestfryslan.nl"
        }
    },
    {
        "model": "core.governmentdomain",
        "pk": 118,
        "fields": {
            "name": "gemeentewestland",
            "email_domain": "gemeentewestland.nl"
        }
    },
    {
        "model": "core.governmentdomain",
        "pk": 119,
        "fields": {
            "name": "gemwoudenberg",
            "email_domain": "gemwoudenberg.nl"
        }
    },
    {
        "model": "core.governmentdomain",
        "pk": 120,
        "fields": {
            "name": "gewestgooienvechtstreek",
            "email_domain": "gewestgooienvechtstreek.nl"
        }
    },
    {
        "model": "core.governmentdomain",
        "pk": 121,
        "fields": {
            "name": "gg-v",
            "email_domain": "gg-v.nl"
        }
    },
    {
        "model": "core.governmentdomain",
        "pk": 122,
        "fields": {
            "name": "giessenlanden",
            "email_domain": "giessenlanden.nl"
        }
    },
    {
        "model": "core.governmentdomain",
        "pk": 123,
        "fields": {
            "name": "goeree-overflakkee",
            "email_domain": "goeree-overflakkee.nl"
        }
    },
    {
        "model": "core.governmentdomain",
        "pk": 124,
        "fields": {
            "name": "goirle",
            "email_domain": "goirle.nl"
        }
    },
    {
        "model": "core.governmentdomain",
        "pk": 125,
        "fields": {
            "name": "gorinchem",
            "email_domain": "gorinchem.nl"
        }
    },
    {
        "model": "core.governmentdomain",
        "pk": 126,
        "fields": {
            "name": "gouda",
            "email_domain": "gouda.nl"
        }
    },
    {
        "model": "core.governmentdomain",
        "pk": 127,
        "fields": {
            "name": "graftderijp",
            "email_domain": "graftderijp.nl"
        }
    },
    {
        "model": "core.governmentdomain",
        "pk": 128,
        "fields": {
            "name": "grave",
            "email_domain": "grave.nl"
        }
    },
    {
        "model": "core.governmentdomain",
        "pk": 129,
        "fields": {
            "name": "groesbeek",
            "email_domain": "groesbeek.nl"
        }
    },
    {
        "model": "core.governmentdomain",
        "pk": 130,
        "fields": {
            "name": "groningen",
            "email_domain": "groningen.nl"
        }
    },
    {
        "model": "core.governmentdomain",
        "pk": 131,
        "fields": {
            "name": "groningergemeenten",
            "email_domain": "groningergemeenten.nl"
        }
    },
    {
        "model": "core.governmentdomain",
        "pk": 132,
        "fields": {
            "name": "grootegast",
            "email_domain": "grootegast.nl"
        }
    },
    {
        "model": "core.governmentdomain",
        "pk": 133,
        "fields": {
            "name": "gulpen-wittem",
            "email_domain": "gulpen-wittem.nl"
        }
    },
    {
        "model": "core.governmentdomain",
        "pk": 134,
        "fields": {
            "name": "h-i-ambacht",
            "email_domain": "h-i-ambacht.nl"
        }
    },
    {
        "model": "core.governmentdomain",
        "pk": 135,
        "fields": {
            "name": "haaksbergen",
            "email_domain": "haaksbergen.nl"
        }
    },
    {
        "model": "core.governmentdomain",
        "pk": 136,
        "fields": {
            "name": "haaren",
            "email_domain": "haaren.nl"
        }
    },
    {
        "model": "core.governmentdomain",
        "pk": 137,
        "fields": {
            "name": "haarlem",
            "email_domain": "haarlem.nl"
        }
    },
    {
        "model": "core.governmentdomain",
        "pk": 138,
        "fields": {
            "name": "haarlemmerliede",
            "email_domain": "haarlemmerliede.nl"
        }
    },
    {
        "model": "core.governmentdomain",
        "pk": 139,
        "fields": {
            "name": "haarlemmermeer",
            "email_domain": "haarlemmermeer.nl"
        }
    },
    {
        "model": "core.governmentdomain",
        "pk": 140,
        "fields": {
            "name": "halderberge",
            "email_domain": "halderberge.nl"
        }
    },
    {
        "model": "core.governmentdomain",
        "pk": 141,
        "fields": {
            "name": "hardenberg",
            "email_domain": "hardenberg.nl"
        }
    },
    {
        "model": "core.governmentdomain",
        "pk": 142,
        "fields": {
            "name": "harderwijk",
            "email_domain": "harderwijk.nl"
        }
    },
    {
        "model": "core.governmentdomain",
        "pk": 143,
        "fields": {
            "name": "hardewijk",
            "email_domain": "hardewijk.nl"
        }
    },
    {
        "model": "core.governmentdomain",
        "pk": 144,
        "fields": {
            "name": "hardinxveld-giessendam",
            "email_domain": "hardinxveld-giessendam.nl"
        }
    },
    {
        "model": "core.governmentdomain",
        "pk": 145,
        "fields": {
            "name": "haren",
            "email_domain": "haren.nl"
        }
    },
    {
        "model": "core.governmentdomain",
        "pk": 146,
        "fields": {
            "name": "harlingen",
            "email_domain": "harlingen.nl"
        }
    },
    {
        "model": "core.governmentdomain",
        "pk": 147,
        "fields": {
            "name": "hattem",
            "email_domain": "hattem.nl"
        }
    },
    {
        "model": "core.governmentdomain",
        "pk": 148,
        "fields": {
            "name": "heemskerk",
            "email_domain": "heemskerk.nl"
        }
    },
    {
        "model": "core.governmentdomain",
        "pk": 149,
        "fields": {
            "name": "heemstede",
            "email_domain": "heemstede.nl"
        }
    },
    {
        "model": "core.governmentdomain",
        "pk": 150,
        "fields": {
            "name": "heerde",
            "email_domain": "heerde.nl"
        }
    },
    {
        "model": "core.governmentdomain",
        "pk": 151,
        "fields": {
            "name": "heerenveen",
            "email_domain": "heerenveen.nl"
        }
    },
    {
        "model": "core.governmentdomain",
        "pk": 152,
        "fields": {
            "name": "heerhugowaard",
            "email_domain": "heerhugowaard.nl"
        }
    },
    {
        "model": "core.governmentdomain",
        "pk": 153,
        "fields": {
            "name": "heerlen",
            "email_domain": "heerlen.nl"
        }
    },
    {
        "model": "core.governmentdomain",
        "pk": 154,
        "fields": {
            "name": "heeze-leende",
            "email_domain": "heeze-leende.nl"
        }
    },
    {
        "model": "core.governmentdomain",
        "pk": 155,
        "fields": {
            "name": "heiloo",
            "email_domain": "heiloo.nl"
        }
    },
    {
        "model": "core.governmentdomain",
        "pk": 156,
        "fields": {
            "name": "hellendoorn",
            "email_domain": "hellendoorn.nl"
        }
    },
    {
        "model": "core.governmentdomain",
        "pk": 157,
        "fields": {
            "name": "hellevoetsluis",
            "email_domain": "hellevoetsluis.nl"
        }
    },
    {
        "model": "core.governmentdomain",
        "pk": 158,
        "fields": {
            "name": "helmond",
            "email_domain": "helmond.nl"
        }
    },
    {
        "model": "core.governmentdomain",
        "pk": 159,
        "fields": {
            "name": "hengelo",
            "email_domain": "hengelo.nl"
        }
    },
    {
        "model": "core.governmentdomain",
        "pk": 160,
        "fields": {
            "name": "hetbildt",
            "email_domain": "hetbildt.nl"
        }
    },
    {
        "model": "core.governmentdomain",
        "pk": 161,
        "fields": {
            "name": "hetcak",
            "email_domain": "hetcak.nl"
        }
    },
    {
        "model": "core.governmentdomain",
        "pk": 162,
        "fields": {
            "name": "heumen",
            "email_domain": "heumen.nl"
        }
    },
    {
        "model": "core.governmentdomain",
        "pk": 163,
        "fields": {
            "name": "heusden",
            "email_domain": "heusden.nl"
        }
    },
    {
        "model": "core.governmentdomain",
        "pk": 164,
        "fields": {
            "name": "heuvelrug",
            "email_domain": "heuvelrug.nl"
        }
    },
    {
        "model": "core.governmentdomain",
        "pk": 165,
        "fields": {
            "name": "hhnk",
            "email_domain": "hhnk.nl"
        }
    },
    {
        "model": "core.governmentdomain",
        "pk": 166,
        "fields": {
            "name": "hillegom",
            "email_domain": "hillegom.nl"
        }
    },
    {
        "model": "core.governmentdomain",
        "pk": 167,
        "fields": {
            "name": "hilvarenbeek",
            "email_domain": "hilvarenbeek.nl"
        }
    },
    {
        "model": "core.governmentdomain",
        "pk": 168,
        "fields": {
            "name": "hilversum",
            "email_domain": "hilversum.nl"
        }
    },
    {
        "model": "core.governmentdomain",
        "pk": 169,
        "fields": {
            "name": "hofvantwente",
            "email_domain": "hofvantwente.nl"
        }
    },
    {
        "model": "core.governmentdomain",
        "pk": 170,
        "fields": {
            "name": "hollands-midden.politie",
            "email_domain": "hollands-midden.politie.nl"
        }
    },
    {
        "model": "core.governmentdomain",
        "pk": 171,
        "fields": {
            "name": "hollandskroon",
            "email_domain": "hollandskroon.nl"
        }
    },
    {
        "model": "core.governmentdomain",
        "pk": 172,
        "fields": {
            "name": "hoogeveen",
            "email_domain": "hoogeveen.nl"
        }
    },
    {
        "model": "core.governmentdomain",
        "pk": 173,
        "fields": {
            "name": "hoogezand-sappemeer",
            "email_domain": "hoogezand-sappemeer.nl"
        }
    },
    {
        "model": "core.governmentdomain",
        "pk": 174,
        "fields": {
            "name": "hoorn",
            "email_domain": "hoorn.nl"
        }
    },
    {
        "model": "core.governmentdomain",
        "pk": 175,
        "fields": {
            "name": "horstaandemaas",
            "email_domain": "horstaandemaas.nl"
        }
    },
    {
        "model": "core.governmentdomain",
        "pk": 176,
        "fields": {
            "name": "houten",
            "email_domain": "houten.nl"
        }
    },
    {
        "model": "core.governmentdomain",
        "pk": 177,
        "fields": {
            "name": "huizen",
            "email_domain": "huizen.nl"
        }
    },
    {
        "model": "core.governmentdomain",
        "pk": 178,
        "fields": {
            "name": "huurcommissie",
            "email_domain": "huurcommissie.nl"
        }
    },
    {
        "model": "core.governmentdomain",
        "pk": 179,
        "fields": {
            "name": "ictu",
            "email_domain": "ictu.nl"
        }
    },
    {
        "model": "core.governmentdomain",
        "pk": 180,
        "fields": {
            "name": "ijsselgemeenten",
            "email_domain": "ijsselgemeenten.nl"
        }
    },
    {
        "model": "core.governmentdomain",
        "pk": 181,
        "fields": {
            "name": "ijsselstein",
            "email_domain": "ijsselstein.nl"
        }
    },
    {
        "model": "core.governmentdomain",
        "pk": 182,
        "fields": {
            "name": "ilent",
            "email_domain": "ilent.nl"
        }
    },
    {
        "model": "core.governmentdomain",
        "pk": 183,
        "fields": {
            "name": "ind.minvenj",
            "email_domain": "ind.minvenj.nl"
        }
    },
    {
        "model": "core.governmentdomain",
        "pk": 184,
        "fields": {
            "name": "ipo",
            "email_domain": "ipo.nl"
        }
    },
    {
        "model": "core.governmentdomain",
        "pk": 185,
        "fields": {
            "name": "kaagenbraassem",
            "email_domain": "kaagenbraassem.nl"
        }
    },
    {
        "model": "core.governmentdomain",
        "pk": 186,
        "fields": {
            "name": "kadaster",
            "email_domain": "kadaster.nl"
        }
    },
    {
        "model": "core.governmentdomain",
        "pk": 187,
        "fields": {
            "name": "kampen",
            "email_domain": "kampen.nl"
        }
    },
    {
        "model": "core.governmentdomain",
        "pk": 188,
        "fields": {
            "name": "kapelle",
            "email_domain": "kapelle.nl"
        }
    },
    {
        "model": "core.governmentdomain",
        "pk": 189,
        "fields": {
            "name": "katwijk",
            "email_domain": "katwijk.nl"
        }
    },
    {
        "model": "core.governmentdomain",
        "pk": 190,
        "fields": {
            "name": "kerkrade",
            "email_domain": "kerkrade.nl"
        }
    },
    {
        "model": "core.governmentdomain",
        "pk": 191,
        "fields": {
            "name": "kindengezin.be",
            "email_domain": "kindengezin.be"
        }
    },
    {
        "model": "core.governmentdomain",
        "pk": 192,
        "fields": {
            "name": "koggenland",
            "email_domain": "koggenland.nl"
        }
    },
    {
        "model": "core.governmentdomain",
        "pk": 193,
        "fields": {
            "name": "kollumerland",
            "email_domain": "kollumerland.nl"
        }
    },
    {
        "model": "core.governmentdomain",
        "pk": 194,
        "fields": {
            "name": "korendijk",
            "email_domain": "korendijk.nl"
        }
    },
    {
        "model": "core.governmentdomain",
        "pk": 195,
        "fields": {
            "name": "krimpenaandenijssel",
            "email_domain": "krimpenaandenijssel.nl"
        }
    },
    {
        "model": "core.governmentdomain",
        "pk": 196,
        "fields": {
            "name": "kvk",
            "email_domain": "kvk.nl"
        }
    },
    {
        "model": "core.governmentdomain",
        "pk": 197,
        "fields": {
            "name": "laarbeek",
            "email_domain": "laarbeek.nl"
        }
    },
    {
        "model": "core.governmentdomain",
        "pk": 198,
        "fields": {
            "name": "landerd",
            "email_domain": "landerd.nl"
        }
    },
    {
        "model": "core.governmentdomain",
        "pk": 199,
        "fields": {
            "name": "landgraaf",
            "email_domain": "landgraaf.nl"
        }
    },
    {
        "model": "core.governmentdomain",
        "pk": 200,
        "fields": {
            "name": "landsmeer",
            "email_domain": "landsmeer.nl"
        }
    },
    {
        "model": "core.governmentdomain",
        "pk": 201,
        "fields": {
            "name": "lansingerland",
            "email_domain": "lansingerland.nl"
        }
    },
    {
        "model": "core.governmentdomain",
        "pk": 202,
        "fields": {
            "name": "laren",
            "email_domain": "laren.nl"
        }
    },
    {
        "model": "core.governmentdomain",
        "pk": 203,
        "fields": {
            "name": "leek",
            "email_domain": "leek.nl"
        }
    },
    {
        "model": "core.governmentdomain",
        "pk": 204,
        "fields": {
            "name": "leerdam",
            "email_domain": "leerdam.nl"
        }
    },
    {
        "model": "core.governmentdomain",
        "pk": 205,
        "fields": {
            "name": "leeuwarden",
            "email_domain": "leeuwarden.nl"
        }
    },
    {
        "model": "core.governmentdomain",
        "pk": 206,
        "fields": {
            "name": "leeuwarderadeel",
            "email_domain": "leeuwarderadeel.nl"
        }
    },
    {
        "model": "core.governmentdomain",
        "pk": 207,
        "fields": {
            "name": "leiden",
            "email_domain": "leiden.nl"
        }
    },
    {
        "model": "core.governmentdomain",
        "pk": 208,
        "fields": {
            "name": "leiderdorp",
            "email_domain": "leiderdorp.nl"
        }
    },
    {
        "model": "core.governmentdomain",
        "pk": 209,
        "fields": {
            "name": "leidschendam-voorburg",
            "email_domain": "leidschendam-voorburg.nl"
        }
    },
    {
        "model": "core.governmentdomain",
        "pk": 210,
        "fields": {
            "name": "lelystad",
            "email_domain": "lelystad.nl"
        }
    },
    {
        "model": "core.governmentdomain",
        "pk": 211,
        "fields": {
            "name": "leudal",
            "email_domain": "leudal.nl"
        }
    },
    {
        "model": "core.governmentdomain",
        "pk": 212,
        "fields": {
            "name": "leusden",
            "email_domain": "leusden.nl"
        }
    },
    {
        "model": "core.governmentdomain",
        "pk": 213,
        "fields": {
            "name": "lingewaal",
            "email_domain": "lingewaal.nl"
        }
    },
    {
        "model": "core.governmentdomain",
        "pk": 214,
        "fields": {
            "name": "lingewaard",
            "email_domain": "lingewaard.nl"
        }
    },
    {
        "model": "core.governmentdomain",
        "pk": 215,
        "fields": {
            "name": "lisse",
            "email_domain": "lisse.nl"
        }
    },
    {
        "model": "core.governmentdomain",
        "pk": 216,
        "fields": {
            "name": "littenseradiel",
            "email_domain": "littenseradiel.nl"
        }
    },
    {
        "model": "core.governmentdomain",
        "pk": 217,
        "fields": {
            "name": "lochem",
            "email_domain": "lochem.nl"
        }
    },
    {
        "model": "core.governmentdomain",
        "pk": 218,
        "fields": {
            "name": "logius",
            "email_domain": "logius.nl"
        }
    },
    {
        "model": "core.governmentdomain",
        "pk": 219,
        "fields": {
            "name": "loonopzand",
            "email_domain": "loonopzand.nl"
        }
    },
    {
        "model": "core.governmentdomain",
        "pk": 220,
        "fields": {
            "name": "lopik",
            "email_domain": "lopik.nl"
        }
    },
    {
        "model": "core.governmentdomain",
        "pk": 221,
        "fields": {
            "name": "loppersum",
            "email_domain": "loppersum.nl"
        }
    },
    {
        "model": "core.governmentdomain",
        "pk": 222,
        "fields": {
            "name": "losser",
            "email_domain": "losser.nl"
        }
    },
    {
        "model": "core.governmentdomain",
        "pk": 223,
        "fields": {
            "name": "maasdonk",
            "email_domain": "maasdonk.nl"
        }
    },
    {
        "model": "core.governmentdomain",
        "pk": 224,
        "fields": {
            "name": "maasdriel",
            "email_domain": "maasdriel.nl"
        }
    },
    {
        "model": "core.governmentdomain",
        "pk": 225,
        "fields": {
            "name": "maasgouw",
            "email_domain": "maasgouw.nl"
        }
    },
    {
        "model": "core.governmentdomain",
        "pk": 226,
        "fields": {
            "name": "maassluis",
            "email_domain": "maassluis.nl"
        }
    },
    {
        "model": "core.governmentdomain",
        "pk": 227,
        "fields": {
            "name": "maastricht",
            "email_domain": "maastricht.nl"
        }
    },
    {
        "model": "core.governmentdomain",
        "pk": 228,
        "fields": {
            "name": "marum",
            "email_domain": "marum.nl"
        }
    },
    {
        "model": "core.governmentdomain",
        "pk": 229,
        "fields": {
            "name": "medemblik",
            "email_domain": "medemblik.nl"
        }
    },
    {
        "model": "core.governmentdomain",
        "pk": 230,
        "fields": {
            "name": "meerssen",
            "email_domain": "meerssen.nl"
        }
    },
    {
        "model": "core.governmentdomain",
        "pk": 231,
        "fields": {
            "name": "menameradiel",
            "email_domain": "menameradiel.nl"
        }
    },
    {
        "model": "core.governmentdomain",
        "pk": 232,
        "fields": {
            "name": "menterwolde",
            "email_domain": "menterwolde.nl"
        }
    },
    {
        "model": "core.governmentdomain",
        "pk": 233,
        "fields": {
            "name": "meppel",
            "email_domain": "meppel.nl"
        }
    },
    {
        "model": "core.governmentdomain",
        "pk": 234,
        "fields": {
            "name": "middelburg",
            "email_domain": "middelburg.nl"
        }
    },
    {
        "model": "core.governmentdomain",
        "pk": 235,
        "fields": {
            "name": "middendelfland",
            "email_domain": "middendelfland.nl"
        }
    },
    {
        "model": "core.governmentdomain",
        "pk": 236,
        "fields": {
            "name": "middendrenthe",
            "email_domain": "middendrenthe.nl"
        }
    },
    {
        "model": "core.governmentdomain",
        "pk": 237,
        "fields": {
            "name": "millingenaanderijn",
            "email_domain": "millingenaanderijn.nl"
        }
    },
    {
        "model": "core.governmentdomain",
        "pk": 238,
        "fields": {
            "name": "minaz",
            "email_domain": "minaz.nl"
        }
    },
    {
        "model": "core.governmentdomain",
        "pk": 239,
        "fields": {
            "name": "minbuza",
            "email_domain": "minbuza.nl"
        }
    },
    {
        "model": "core.governmentdomain",
        "pk": 240,
        "fields": {
            "name": "minbzk",
            "email_domain": "minbzk.nl"
        }
    },
    {
        "model": "core.governmentdomain",
        "pk": 241,
        "fields": {
            "name": "mindef",
            "email_domain": "mindef.nl"
        }
    },
    {
        "model": "core.governmentdomain",
        "pk": 242,
        "fields": {
            "name": "mineleni",
            "email_domain": "mineleni.nl"
        }
    },
    {
        "model": "core.governmentdomain",
        "pk": 243,
        "fields": {
            "name": "minez",
            "email_domain": "minez.nl"
        }
    },
    {
        "model": "core.governmentdomain",
        "pk": 244,
        "fields": {
            "name": "minfin",
            "email_domain": "minfin.nl"
        }
    },
    {
        "model": "core.governmentdomain",
        "pk": 245,
        "fields": {
            "name": "minienm",
            "email_domain": "minienm.nl"
        }
    },
    {
        "model": "core.governmentdomain",
        "pk": 246,
        "fields": {
            "name": "minjus",
            "email_domain": "minjus.nl"
        }
    },
    {
        "model": "core.governmentdomain",
        "pk": 247,
        "fields": {
            "name": "minlnv",
            "email_domain": "minlnv.nl"
        }
    },
    {
        "model": "core.governmentdomain",
        "pk": 248,
        "fields": {
            "name": "minocw",
            "email_domain": "minocw.nl"
        }
    },
    {
        "model": "core.governmentdomain",
        "pk": 249,
        "fields": {
            "name": "minszw",
            "email_domain": "minszw.nl"
        }
    },
    {
        "model": "core.governmentdomain",
        "pk": 250,
        "fields": {
            "name": "minvenj",
            "email_domain": "minvenj.nl"
        }
    },
    {
        "model": "core.governmentdomain",
        "pk": 251,
        "fields": {
            "name": "minvenw",
            "email_domain": "minvenw.nl"
        }
    },
    {
        "model": "core.governmentdomain",
        "pk": 252,
        "fields": {
            "name": "minvrom",
            "email_domain": "minvrom.nl"
        }
    },
    {
        "model": "core.governmentdomain",
        "pk": 253,
        "fields": {
            "name": "minvws",
            "email_domain": "minvws.nl"
        }
    },
    {
        "model": "core.governmentdomain",
        "pk": 254,
        "fields": {
            "name": "moerdijk",
            "email_domain": "moerdijk.nl"
        }
    },
    {
        "model": "core.governmentdomain",
        "pk": 255,
        "fields": {
            "name": "montferland.info",
            "email_domain": "montferland.info"
        }
    },
    {
        "model": "core.governmentdomain",
        "pk": 256,
        "fields": {
            "name": "montfoort",
            "email_domain": "montfoort.nl"
        }
    },
    {
        "model": "core.governmentdomain",
        "pk": 257,
        "fields": {
            "name": "mookenmiddelaar",
            "email_domain": "mookenmiddelaar.nl"
        }
    },
    {
        "model": "core.governmentdomain",
        "pk": 258,
        "fields": {
            "name": "muiden",
            "email_domain": "muiden.nl"
        }
    },
    {
        "model": "core.governmentdomain",
        "pk": 259,
        "fields": {
            "name": "naarden",
            "email_domain": "naarden.nl"
        }
    },
    {
        "model": "core.governmentdomain",
        "pk": 260,
        "fields": {
            "name": "nederbetuwe",
            "email_domain": "nederbetuwe.nl"
        }
    },
    {
        "model": "core.governmentdomain",
        "pk": 261,
        "fields": {
            "name": "nederlek",
            "email_domain": "nederlek.nl"
        }
    },
    {
        "model": "core.governmentdomain",
        "pk": 262,
        "fields": {
            "name": "nederweert",
            "email_domain": "nederweert.nl"
        }
    },
    {
        "model": "core.governmentdomain",
        "pk": 263,
        "fields": {
            "name": "neerijnen",
            "email_domain": "neerijnen.nl"
        }
    },
    {
        "model": "core.governmentdomain",
        "pk": 264,
        "fields": {
            "name": "nhl",
            "email_domain": "nhl.nl"
        }
    },
    {
        "model": "core.governmentdomain",
        "pk": 265,
        "fields": {
            "name": "nieuwegein",
            "email_domain": "nieuwegein.nl"
        }
    },
    {
        "model": "core.governmentdomain",
        "pk": 266,
        "fields": {
            "name": "nieuwkoop",
            "email_domain": "nieuwkoop.nl"
        }
    },
    {
        "model": "core.governmentdomain",
        "pk": 267,
        "fields": {
            "name": "nieuwwest.amsterdam",
            "email_domain": "nieuwwest.amsterdam.nl"
        }
    },
    {
        "model": "core.governmentdomain",
        "pk": 268,
        "fields": {
            "name": "nijkerk.eu",
            "email_domain": "nijkerk.eu"
        }
    },
    {
        "model": "core.governmentdomain",
        "pk": 269,
        "fields": {
            "name": "nijmegen",
            "email_domain": "nijmegen.nl"
        }
    },
    {
        "model": "core.governmentdomain",
        "pk": 270,
        "fields": {
            "name": "noord-beveland",
            "email_domain": "noord-beveland.nl"
        }
    },
    {
        "model": "core.governmentdomain",
        "pk": 271,
        "fields": {
            "name": "noord-holland",
            "email_domain": "noord-holland.nl"
        }
    },
    {
        "model": "core.governmentdomain",
        "pk": 272,
        "fields": {
            "name": "noordoostpolder",
            "email_domain": "noordoostpolder.nl"
        }
    },
    {
        "model": "core.governmentdomain",
        "pk": 273,
        "fields": {
            "name": "noordwijk",
            "email_domain": "noordwijk.nl"
        }
    },
    {
        "model": "core.governmentdomain",
        "pk": 274,
        "fields": {
            "name": "noordwijkerhout",
            "email_domain": "noordwijkerhout.nl"
        }
    },
    {
        "model": "core.governmentdomain",
        "pk": 275,
        "fields": {
            "name": "nuenen",
            "email_domain": "nuenen.nl"
        }
    },
    {
        "model": "core.governmentdomain",
        "pk": 276,
        "fields": {
            "name": "nuffic",
            "email_domain": "nuffic.nl"
        }
    },
    {
        "model": "core.governmentdomain",
        "pk": 277,
        "fields": {
            "name": "nunspeet",
            "email_domain": "nunspeet.nl"
        }
    },
    {
        "model": "core.governmentdomain",
        "pk": 278,
        "fields": {
            "name": "nuth",
            "email_domain": "nuth.nl"
        }
    },
    {
        "model": "core.governmentdomain",
        "pk": 279,
        "fields": {
            "name": "nvwa",
            "email_domain": "nvwa.nl"
        }
    },
    {
        "model": "core.governmentdomain",
        "pk": 280,
        "fields": {
            "name": "odachterhoek",
            "email_domain": "odachterhoek.nl"
        }
    },
    {
        "model": "core.governmentdomain",
        "pk": 281,
        "fields": {
            "name": "odnv",
            "email_domain": "odnv.nl"
        }
    },
    {
        "model": "core.governmentdomain",
        "pk": 282,
        "fields": {
            "name": "odra",
            "email_domain": "odra.nl"
        }
    },
    {
        "model": "core.governmentdomain",
        "pk": 283,
        "fields": {
            "name": "odrn",
            "email_domain": "odrn.nl"
        }
    },
    {
        "model": "core.governmentdomain",
        "pk": 284,
        "fields": {
            "name": "oegstgeest",
            "email_domain": "oegstgeest.nl"
        }
    },
    {
        "model": "core.governmentdomain",
        "pk": 285,
        "fields": {
            "name": "oirschot",
            "email_domain": "oirschot.nl"
        }
    },
    {
        "model": "core.governmentdomain",
        "pk": 286,
        "fields": {
            "name": "oisterwijk",
            "email_domain": "oisterwijk.nl"
        }
    },
    {
        "model": "core.governmentdomain",
        "pk": 287,
        "fields": {
            "name": "oldebroek",
            "email_domain": "oldebroek.nl"
        }
    },
    {
        "model": "core.governmentdomain",
        "pk": 288,
        "fields": {
            "name": "oldenzaal",
            "email_domain": "oldenzaal.nl"
        }
    },
    {
        "model": "core.governmentdomain",
        "pk": 289,
        "fields": {
            "name": "olst-wijhe",
            "email_domain": "olst-wijhe.nl"
        }
    },
    {
        "model": "core.governmentdomain",
        "pk": 290,
        "fields": {
            "name": "om",
            "email_domain": "om.nl"
        }
    },
    {
        "model": "core.governmentdomain",
        "pk": 291,
        "fields": {
            "name": "ommen",
            "email_domain": "ommen.nl"
        }
    },
    {
        "model": "core.governmentdomain",
        "pk": 292,
        "fields": {
            "name": "omwb",
            "email_domain": "omwb.nl"
        }
    },
    {
        "model": "core.governmentdomain",
        "pk": 293,
        "fields": {
            "name": "ond.vlaanderen.be",
            "email_domain": "ond.vlaanderen.be"
        }
    },
    {
        "model": "core.governmentdomain",
        "pk": 294,
        "fields": {
            "name": "onderbanken",
            "email_domain": "onderbanken.nl"
        }
    },
    {
        "model": "core.governmentdomain",
        "pk": 295,
        "fields": {
            "name": "oosterhout",
            "email_domain": "oosterhout.nl"
        }
    },
    {
        "model": "core.governmentdomain",
        "pk": 296,
        "fields": {
            "name": "oostgelre",
            "email_domain": "oostgelre.nl"
        }
    },
    {
        "model": "core.governmentdomain",
        "pk": 297,
        "fields": {
            "name": "ooststellingwerf",
            "email_domain": "ooststellingwerf.nl"
        }
    },
    {
        "model": "core.governmentdomain",
        "pk": 298,
        "fields": {
            "name": "oostzaan",
            "email_domain": "oostzaan.nl"
        }
    },
    {
        "model": "core.governmentdomain",
        "pk": 299,
        "fields": {
            "name": "opmeer",
            "email_domain": "opmeer.nl"
        }
    },
    {
        "model": "core.governmentdomain",
        "pk": 300,
        "fields": {
            "name": "opsterland",
            "email_domain": "opsterland.nl"
        }
    },
    {
        "model": "core.governmentdomain",
        "pk": 301,
        "fields": {
            "name": "oss",
            "email_domain": "oss.nl"
        }
    },
    {
        "model": "core.governmentdomain",
        "pk": 302,
        "fields": {
            "name": "oud-beijerland",
            "email_domain": "oud-beijerland.nl"
        }
    },
    {
        "model": "core.governmentdomain",
        "pk": 303,
        "fields": {
            "name": "oude-ijsselstreek",
            "email_domain": "oude-ijsselstreek.nl"
        }
    },
    {
        "model": "core.governmentdomain",
        "pk": 304,
        "fields": {
            "name": "ouder-amstel",
            "email_domain": "ouder-amstel.nl"
        }
    },
    {
        "model": "core.governmentdomain",
        "pk": 305,
        "fields": {
            "name": "ouderkerk",
            "email_domain": "ouderkerk.nl"
        }
    },
    {
        "model": "core.governmentdomain",
        "pk": 306,
        "fields": {
            "name": "oudewater",
            "email_domain": "oudewater.nl"
        }
    },
    {
        "model": "core.governmentdomain",
        "pk": 307,
        "fields": {
            "name": "overbetuwe",
            "email_domain": "overbetuwe.nl"
        }
    },
    {
        "model": "core.governmentdomain",
        "pk": 308,
        "fields": {
            "name": "overgemeenten",
            "email_domain": "overgemeenten.nl"
        }
    },
    {
        "model": "core.governmentdomain",
        "pk": 309,
        "fields": {
            "name": "overijssel",
            "email_domain": "overijssel.nl"
        }
    },
    {
        "model": "core.governmentdomain",
        "pk": 310,
        "fields": {
            "name": "ovij",
            "email_domain": "ovij.nl"
        }
    },
    {
        "model": "core.governmentdomain",
        "pk": 311,
        "fields": {
            "name": "ozhz",
            "email_domain": "ozhz.nl"
        }
    },
    {
        "model": "core.governmentdomain",
        "pk": 312,
        "fields": {
            "name": "papendrecht",
            "email_domain": "papendrecht.nl"
        }
    },
    {
        "model": "core.governmentdomain",
        "pk": 313,
        "fields": {
            "name": "peelenmaas",
            "email_domain": "peelenmaas.nl"
        }
    },
    {
        "model": "core.governmentdomain",
        "pk": 314,
        "fields": {
            "name": "pekela",
            "email_domain": "pekela.nl"
        }
    },
    {
        "model": "core.governmentdomain",
        "pk": 315,
        "fields": {
            "name": "pijnacker-nootdorp",
            "email_domain": "pijnacker-nootdorp.nl"
        }
    },
    {
        "model": "core.governmentdomain",
        "pk": 316,
        "fields": {
            "name": "provincie-utrecht",
            "email_domain": "provincie-utrecht.nl"
        }
    },
    {
        "model": "core.governmentdomain",
        "pk": 317,
        "fields": {
            "name": "provinciegroningen",
            "email_domain": "provinciegroningen.nl"
        }
    },
    {
        "model": "core.governmentdomain",
        "pk": 318,
        "fields": {
            "name": "prvlimburg",
            "email_domain": "prvlimburg.nl"
        }
    },
    {
        "model": "core.governmentdomain",
        "pk": 319,
        "fields": {
            "name": "purmerend",
            "email_domain": "purmerend.nl"
        }
    },
    {
        "model": "core.governmentdomain",
        "pk": 320,
        "fields": {
            "name": "putten",
            "email_domain": "putten.nl"
        }
    },
    {
        "model": "core.governmentdomain",
        "pk": 321,
        "fields": {
            "name": "pzh",
            "email_domain": "pzh.nl"
        }
    },
    {
        "model": "core.governmentdomain",
        "pk": 322,
        "fields": {
            "name": "raalte",
            "email_domain": "raalte.nl"
        }
    },
    {
        "model": "core.governmentdomain",
        "pk": 323,
        "fields": {
            "name": "rad",
            "email_domain": "rad.nl"
        }
    },
    {
        "model": "core.governmentdomain",
        "pk": 324,
        "fields": {
            "name": "rdw",
            "email_domain": "rdw.nl"
        }
    },
    {
        "model": "core.governmentdomain",
        "pk": 325,
        "fields": {
            "name": "reimerswaal",
            "email_domain": "reimerswaal.nl"
        }
    },
    {
        "model": "core.governmentdomain",
        "pk": 326,
        "fields": {
            "name": "renkum",
            "email_domain": "renkum.nl"
        }
    },
    {
        "model": "core.governmentdomain",
        "pk": 327,
        "fields": {
            "name": "renswoude",
            "email_domain": "renswoude.nl"
        }
    },
    {
        "model": "core.governmentdomain",
        "pk": 328,
        "fields": {
            "name": "reuseldemierden",
            "email_domain": "reuseldemierden.nl"
        }
    },
    {
        "model": "core.governmentdomain",
        "pk": 329,
        "fields": {
            "name": "rgd.minbzk",
            "email_domain": "rgd.minbzk.nl"
        }
    },
    {
        "model": "core.governmentdomain",
        "pk": 330,
        "fields": {
            "name": "rheden",
            "email_domain": "rheden.nl"
        }
    },
    {
        "model": "core.governmentdomain",
        "pk": 331,
        "fields": {
            "name": "rhenen",
            "email_domain": "rhenen.nl"
        }
    },
    {
        "model": "core.governmentdomain",
        "pk": 332,
        "fields": {
            "name": "ridderkerk",
            "email_domain": "ridderkerk.nl"
        }
    },
    {
        "model": "core.governmentdomain",
        "pk": 333,
        "fields": {
            "name": "rijkdienstcn.com",
            "email_domain": "rijkdienstcn.com"
        }
    },
    {
        "model": "core.governmentdomain",
        "pk": 334,
        "fields": {
            "name": "rijksdienstcn.com",
            "email_domain": "rijksdienstcn.com"
        }
    },
    {
        "model": "core.governmentdomain",
        "pk": 335,
        "fields": {
            "name": "rijksoverheid",
            "email_domain": "rijksoverheid.nl"
        }
    },
    {
        "model": "core.governmentdomain",
        "pk": 336,
        "fields": {
            "name": "rijksrecherche",
            "email_domain": "rijksrecherche.nl"
        }
    },
    {
        "model": "core.governmentdomain",
        "pk": 337,
        "fields": {
            "name": "rijnwaarden",
            "email_domain": "rijnwaarden.nl"
        }
    },
    {
        "model": "core.governmentdomain",
        "pk": 338,
        "fields": {
            "name": "rijnwoude",
            "email_domain": "rijnwoude.nl"
        }
    },
    {
        "model": "core.governmentdomain",
        "pk": 339,
        "fields": {
            "name": "rijssen-holten",
            "email_domain": "rijssen-holten.nl"
        }
    },
    {
        "model": "core.governmentdomain",
        "pk": 340,
        "fields": {
            "name": "rijswijk",
            "email_domain": "rijswijk.nl"
        }
    },
    {
        "model": "core.governmentdomain",
        "pk": 341,
        "fields": {
            "name": "rivm",
            "email_domain": "rivm.nl"
        }
    },
    {
        "model": "core.governmentdomain",
        "pk": 342,
        "fields": {
            "name": "roerdalen",
            "email_domain": "roerdalen.nl"
        }
    },
    {
        "model": "core.governmentdomain",
        "pk": 343,
        "fields": {
            "name": "roermond",
            "email_domain": "roermond.nl"
        }
    },
    {
        "model": "core.governmentdomain",
        "pk": 344,
        "fields": {
            "name": "roosendaal",
            "email_domain": "roosendaal.nl"
        }
    },
    {
        "model": "core.governmentdomain",
        "pk": 345,
        "fields": {
            "name": "rotterdam",
            "email_domain": "rotterdam.nl"
        }
    },
    {
        "model": "core.governmentdomain",
        "pk": 346,
        "fields": {
            "name": "rozendaal",
            "email_domain": "rozendaal.nl"
        }
    },
    {
        "model": "core.governmentdomain",
        "pk": 347,
        "fields": {
            "name": "rucphen",
            "email_domain": "rucphen.nl"
        }
    },
    {
        "model": "core.governmentdomain",
        "pk": 348,
        "fields": {
            "name": "rudutrecht",
            "email_domain": "rudutrecht.nl"
        }
    },
    {
        "model": "core.governmentdomain",
        "pk": 349,
        "fields": {
            "name": "rvo",
            "email_domain": "rvo.nl"
        }
    },
    {
        "model": "core.governmentdomain",
        "pk": 350,
        "fields": {
            "name": "rws",
            "email_domain": "rws.nl"
        }
    },
    {
        "model": "core.governmentdomain",
        "pk": 351,
        "fields": {
            "name": "s-hertogenbosch",
            "email_domain": "s-hertogenbosch.nl"
        }
    },
    {
        "model": "core.governmentdomain",
        "pk": 352,
        "fields": {
            "name": "schagen",
            "email_domain": "schagen.nl"
        }
    },
    {
        "model": "core.governmentdomain",
        "pk": 353,
        "fields": {
            "name": "schermer",
            "email_domain": "schermer.nl"
        }
    },
    {
        "model": "core.governmentdomain",
        "pk": 354,
        "fields": {
            "name": "scherpenzeel",
            "email_domain": "scherpenzeel.nl"
        }
    },
    {
        "model": "core.governmentdomain",
        "pk": 355,
        "fields": {
            "name": "schiedam",
            "email_domain": "schiedam.nl"
        }
    },
    {
        "model": "core.governmentdomain",
        "pk": 356,
        "fields": {
            "name": "schiermonnikoog",
            "email_domain": "schiermonnikoog.nl"
        }
    },
    {
        "model": "core.governmentdomain",
        "pk": 357,
        "fields": {
            "name": "schijndel",
            "email_domain": "schijndel.nl"
        }
    },
    {
        "model": "core.governmentdomain",
        "pk": 358,
        "fields": {
            "name": "schinnen",
            "email_domain": "schinnen.nl"
        }
    },
    {
        "model": "core.governmentdomain",
        "pk": 359,
        "fields": {
            "name": "schoonhoven",
            "email_domain": "schoonhoven.nl"
        }
    },
    {
        "model": "core.governmentdomain",
        "pk": 360,
        "fields": {
            "name": "schouwen-duiveland",
            "email_domain": "schouwen-duiveland.nl"
        }
    },
    {
        "model": "core.governmentdomain",
        "pk": 361,
        "fields": {
            "name": "simpelveld",
            "email_domain": "simpelveld.nl"
        }
    },
    {
        "model": "core.governmentdomain",
        "pk": 362,
        "fields": {
            "name": "sint-michielsgestel",
            "email_domain": "sint-michielsgestel.nl"
        }
    },
    {
        "model": "core.governmentdomain",
        "pk": 363,
        "fields": {
            "name": "sint-oedenrode",
            "email_domain": "sint-oedenrode.nl"
        }
    },
    {
        "model": "core.governmentdomain",
        "pk": 364,
        "fields": {
            "name": "sintanthonis",
            "email_domain": "sintanthonis.nl"
        }
    },
    {
        "model": "core.governmentdomain",
        "pk": 365,
        "fields": {
            "name": "sittard-geleen",
            "email_domain": "sittard-geleen.nl"
        }
    },
    {
        "model": "core.governmentdomain",
        "pk": 366,
        "fields": {
            "name": "sliedrecht",
            "email_domain": "sliedrecht.nl"
        }
    },
    {
        "model": "core.governmentdomain",
        "pk": 367,
        "fields": {
            "name": "slochteren",
            "email_domain": "slochteren.nl"
        }
    },
    {
        "model": "core.governmentdomain",
        "pk": 368,
        "fields": {
            "name": "smallingerland",
            "email_domain": "smallingerland.nl"
        }
    },
    {
        "model": "core.governmentdomain",
        "pk": 369,
        "fields": {
            "name": "soest",
            "email_domain": "soest.nl"
        }
    },
    {
        "model": "core.governmentdomain",
        "pk": 370,
        "fields": {
            "name": "someren",
            "email_domain": "someren.nl"
        }
    },
    {
        "model": "core.governmentdomain",
        "pk": 371,
        "fields": {
            "name": "sonenbreugel",
            "email_domain": "sonenbreugel.nl"
        }
    },
    {
        "model": "core.governmentdomain",
        "pk": 372,
        "fields": {
            "name": "sozawe.rotterdam",
            "email_domain": "sozawe.rotterdam.nl"
        }
    },
    {
        "model": "core.governmentdomain",
        "pk": 373,
        "fields": {
            "name": "spijkenisse",
            "email_domain": "spijkenisse.nl"
        }
    },
    {
        "model": "core.governmentdomain",
        "pk": 374,
        "fields": {
            "name": "stadskanaal",
            "email_domain": "stadskanaal.nl"
        }
    },
    {
        "model": "core.governmentdomain",
        "pk": 375,
        "fields": {
            "name": "staphorst",
            "email_domain": "staphorst.nl"
        }
    },
    {
        "model": "core.governmentdomain",
        "pk": 376,
        "fields": {
            "name": "stedebroec",
            "email_domain": "stedebroec.nl"
        }
    },
    {
        "model": "core.governmentdomain",
        "pk": 377,
        "fields": {
            "name": "steenwijkerland",
            "email_domain": "steenwijkerland.nl"
        }
    },
    {
        "model": "core.governmentdomain",
        "pk": 378,
        "fields": {
            "name": "stichtsevecht",
            "email_domain": "stichtsevecht.nl"
        }
    },
    {
        "model": "core.governmentdomain",
        "pk": 379,
        "fields": {
            "name": "strijen",
            "email_domain": "strijen.nl"
        }
    },
    {
        "model": "core.governmentdomain",
        "pk": 380,
        "fields": {
            "name": "svb",
            "email_domain": "svb.nl"
        }
    },
    {
        "model": "core.governmentdomain",
        "pk": 381,
        "fields": {
            "name": "syntrophos",
            "email_domain": "syntrophos.nl"
        }
    },
    {
        "model": "core.governmentdomain",
        "pk": 382,
        "fields": {
            "name": "tenboer",
            "email_domain": "tenboer.nl"
        }
    },
    {
        "model": "core.governmentdomain",
        "pk": 383,
        "fields": {
            "name": "terneuzen",
            "email_domain": "terneuzen.nl"
        }
    },
    {
        "model": "core.governmentdomain",
        "pk": 384,
        "fields": {
            "name": "terschelling",
            "email_domain": "terschelling.nl"
        }
    },
    {
        "model": "core.governmentdomain",
        "pk": 385,
        "fields": {
            "name": "texel",
            "email_domain": "texel.nl"
        }
    },
    {
        "model": "core.governmentdomain",
        "pk": 386,
        "fields": {
            "name": "teylingen",
            "email_domain": "teylingen.nl"
        }
    },
    {
        "model": "core.governmentdomain",
        "pk": 387,
        "fields": {
            "name": "tholen",
            "email_domain": "tholen.nl"
        }
    },
    {
        "model": "core.governmentdomain",
        "pk": 388,
        "fields": {
            "name": "tiel",
            "email_domain": "tiel.nl"
        }
    },
    {
        "model": "core.governmentdomain",
        "pk": 389,
        "fields": {
            "name": "tilburg",
            "email_domain": "tilburg.nl"
        }
    },
    {
        "model": "core.governmentdomain",
        "pk": 390,
        "fields": {
            "name": "tubbergen",
            "email_domain": "tubbergen.nl"
        }
    },
    {
        "model": "core.governmentdomain",
        "pk": 391,
        "fields": {
            "name": "twenterand",
            "email_domain": "twenterand.nl"
        }
    },
    {
        "model": "core.governmentdomain",
        "pk": 392,
        "fields": {
            "name": "tynaarlo",
            "email_domain": "tynaarlo.nl"
        }
    },
    {
        "model": "core.governmentdomain",
        "pk": 393,
        "fields": {
            "name": "tytsjerksteradiel",
            "email_domain": "tytsjerksteradiel.nl"
        }
    },
    {
        "model": "core.governmentdomain",
        "pk": 394,
        "fields": {
            "name": "ubbergen",
            "email_domain": "ubbergen.nl"
        }
    },
    {
        "model": "core.governmentdomain",
        "pk": 395,
        "fields": {
            "name": "uden",
            "email_domain": "uden.nl"
        }
    },
    {
        "model": "core.governmentdomain",
        "pk": 396,
        "fields": {
            "name": "uitgeest",
            "email_domain": "uitgeest.nl"
        }
    },
    {
        "model": "core.governmentdomain",
        "pk": 397,
        "fields": {
            "name": "uithoorn",
            "email_domain": "uithoorn.nl"
        }
    },
    {
        "model": "core.governmentdomain",
        "pk": 398,
        "fields": {
            "name": "urk",
            "email_domain": "urk.nl"
        }
    },
    {
        "model": "core.governmentdomain",
        "pk": 399,
        "fields": {
            "name": "utrecht",
            "email_domain": "utrecht.nl"
        }
    },
    {
        "model": "core.governmentdomain",
        "pk": 400,
        "fields": {
            "name": "uwv",
            "email_domain": "uwv.nl"
        }
    },
    {
        "model": "core.governmentdomain",
        "pk": 401,
        "fields": {
            "name": "vaals",
            "email_domain": "vaals.nl"
        }
    },
    {
        "model": "core.governmentdomain",
        "pk": 402,
        "fields": {
            "name": "valkenburg",
            "email_domain": "valkenburg.nl"
        }
    },
    {
        "model": "core.governmentdomain",
        "pk": 403,
        "fields": {
            "name": "valkenswaard",
            "email_domain": "valkenswaard.nl"
        }
    },
    {
        "model": "core.governmentdomain",
        "pk": 404,
        "fields": {
            "name": "veendam",
            "email_domain": "veendam.nl"
        }
    },
    {
        "model": "core.governmentdomain",
        "pk": 405,
        "fields": {
            "name": "veenendaal",
            "email_domain": "veenendaal.nl"
        }
    },
    {
        "model": "core.governmentdomain",
        "pk": 406,
        "fields": {
            "name": "veere",
            "email_domain": "veere.nl"
        }
    },
    {
        "model": "core.governmentdomain",
        "pk": 407,
        "fields": {
            "name": "veghel",
            "email_domain": "veghel.nl"
        }
    },
    {
        "model": "core.governmentdomain",
        "pk": 408,
        "fields": {
            "name": "veiligheidsregiomwb",
            "email_domain": "veiligheidsregiomwb.nl"
        }
    },
    {
        "model": "core.governmentdomain",
        "pk": 409,
        "fields": {
            "name": "veldhoven",
            "email_domain": "veldhoven.nl"
        }
    },
    {
        "model": "core.governmentdomain",
        "pk": 410,
        "fields": {
            "name": "velsen",
            "email_domain": "velsen.nl"
        }
    },
    {
        "model": "core.governmentdomain",
        "pk": 411,
        "fields": {
            "name": "venlo",
            "email_domain": "venlo.nl"
        }
    },
    {
        "model": "core.governmentdomain",
        "pk": 412,
        "fields": {
            "name": "venray",
            "email_domain": "venray.nl"
        }
    },
    {
        "model": "core.governmentdomain",
        "pk": 413,
        "fields": {
            "name": "vianen",
            "email_domain": "vianen.nl"
        }
    },
    {
        "model": "core.governmentdomain",
        "pk": 414,
        "fields": {
            "name": "vlaardingen",
            "email_domain": "vlaardingen.nl"
        }
    },
    {
        "model": "core.governmentdomain",
        "pk": 415,
        "fields": {
            "name": "vlagtwedde",
            "email_domain": "vlagtwedde.nl"
        }
    },
    {
        "model": "core.governmentdomain",
        "pk": 416,
        "fields": {
            "name": "vlieland",
            "email_domain": "vlieland.nl"
        }
    },
    {
        "model": "core.governmentdomain",
        "pk": 417,
        "fields": {
            "name": "vlissingen",
            "email_domain": "vlissingen.nl"
        }
    },
    {
        "model": "core.governmentdomain",
        "pk": 418,
        "fields": {
            "name": "voerendaal",
            "email_domain": "voerendaal.nl"
        }
    },
    {
        "model": "core.governmentdomain",
        "pk": 419,
        "fields": {
            "name": "voorschoten",
            "email_domain": "voorschoten.nl"
        }
    },
    {
        "model": "core.governmentdomain",
        "pk": 420,
        "fields": {
            "name": "voorst",
            "email_domain": "voorst.nl"
        }
    },
    {
        "model": "core.governmentdomain",
        "pk": 421,
        "fields": {
            "name": "vrh",
            "email_domain": "vrh.nl"
        }
    },
    {
        "model": "core.governmentdomain",
        "pk": 422,
        "fields": {
            "name": "vrk",
            "email_domain": "vrk.nl"
        }
    },
    {
        "model": "core.governmentdomain",
        "pk": 423,
        "fields": {
            "name": "vught",
            "email_domain": "vught.nl"
        }
    },
    {
        "model": "core.governmentdomain",
        "pk": 424,
        "fields": {
            "name": "waalre",
            "email_domain": "waalre.nl"
        }
    },
    {
        "model": "core.governmentdomain",
        "pk": 425,
        "fields": {
            "name": "waalwijk",
            "email_domain": "waalwijk.nl"
        }
    },
    {
        "model": "core.governmentdomain",
        "pk": 426,
        "fields": {
            "name": "waddinxveen",
            "email_domain": "waddinxveen.nl"
        }
    },
    {
        "model": "core.governmentdomain",
        "pk": 427,
        "fields": {
            "name": "wageningen",
            "email_domain": "wageningen.nl"
        }
    },
    {
        "model": "core.governmentdomain",
        "pk": 428,
        "fields": {
            "name": "wassenaar",
            "email_domain": "wassenaar.nl"
        }
    },
    {
        "model": "core.governmentdomain",
        "pk": 429,
        "fields": {
            "name": "waterland",
            "email_domain": "waterland.nl"
        }
    },
    {
        "model": "core.governmentdomain",
        "pk": 430,
        "fields": {
            "name": "weert",
            "email_domain": "weert.nl"
        }
    },
    {
        "model": "core.governmentdomain",
        "pk": 431,
        "fields": {
            "name": "weesp",
            "email_domain": "weesp.nl"
        }
    },
    {
        "model": "core.governmentdomain",
        "pk": 432,
        "fields": {
            "name": "werkendam",
            "email_domain": "werkendam.nl"
        }
    },
    {
        "model": "core.governmentdomain",
        "pk": 433,
        "fields": {
            "name": "westervoort",
            "email_domain": "westervoort.nl"
        }
    },
    {
        "model": "core.governmentdomain",
        "pk": 434,
        "fields": {
            "name": "westmaasenwaal",
            "email_domain": "westmaasenwaal.nl"
        }
    },
    {
        "model": "core.governmentdomain",
        "pk": 435,
        "fields": {
            "name": "weststellingwerf",
            "email_domain": "weststellingwerf.nl"
        }
    },
    {
        "model": "core.governmentdomain",
        "pk": 436,
        "fields": {
            "name": "westvoorne",
            "email_domain": "westvoorne.nl"
        }
    },
    {
        "model": "core.governmentdomain",
        "pk": 437,
        "fields": {
            "name": "wetterskipfryslan",
            "email_domain": "wetterskipfryslan.nl"
        }
    },
    {
        "model": "core.governmentdomain",
        "pk": 438,
        "fields": {
            "name": "wierden",
            "email_domain": "wierden.nl"
        }
    },
    {
        "model": "core.governmentdomain",
        "pk": 439,
        "fields": {
            "name": "wijchen",
            "email_domain": "wijchen.nl"
        }
    },
    {
        "model": "core.governmentdomain",
        "pk": 440,
        "fields": {
            "name": "wijdemeren",
            "email_domain": "wijdemeren.nl"
        }
    },
    {
        "model": "core.governmentdomain",
        "pk": 441,
        "fields": {
            "name": "wijkbijduurstede",
            "email_domain": "wijkbijduurstede.nl"
        }
    },
    {
        "model": "core.governmentdomain",
        "pk": 442,
        "fields": {
            "name": "winsum",
            "email_domain": "winsum.nl"
        }
    },
    {
        "model": "core.governmentdomain",
        "pk": 443,
        "fields": {
            "name": "winterswijk",
            "email_domain": "winterswijk.nl"
        }
    },
    {
        "model": "core.governmentdomain",
        "pk": 444,
        "fields": {
            "name": "woensdrecht",
            "email_domain": "woensdrecht.nl"
        }
    },
    {
        "model": "core.governmentdomain",
        "pk": 445,
        "fields": {
            "name": "woerden",
            "email_domain": "woerden.nl"
        }
    },
    {
        "model": "core.governmentdomain",
        "pk": 446,
        "fields": {
            "name": "wormerland",
            "email_domain": "wormerland.nl"
        }
    },
    {
        "model": "core.governmentdomain",
        "pk": 447,
        "fields": {
            "name": "woudenberg.eu",
            "email_domain": "woudenberg.eu"
        }
    },
    {
        "model": "core.governmentdomain",
        "pk": 448,
        "fields": {
            "name": "woudrichem",
            "email_domain": "woudrichem.nl"
        }
    },
    {
        "model": "core.governmentdomain",
        "pk": 449,
        "fields": {
            "name": "zaanstad",
            "email_domain": "zaanstad.nl"
        }
    },
    {
        "model": "core.governmentdomain",
        "pk": 450,
        "fields": {
            "name": "zaltbommel",
            "email_domain": "zaltbommel.nl"
        }
    },
    {
        "model": "core.governmentdomain",
        "pk": 451,
        "fields": {
            "name": "zandvoort",
            "email_domain": "zandvoort.nl"
        }
    },
    {
        "model": "core.governmentdomain",
        "pk": 452,
        "fields": {
            "name": "zederik",
            "email_domain": "zederik.nl"
        }
    },
    {
        "model": "core.governmentdomain",
        "pk": 453,
        "fields": {
            "name": "zeeland",
            "email_domain": "zeeland.nl"
        }
    },
    {
        "model": "core.governmentdomain",
        "pk": 454,
        "fields": {
            "name": "zeevang",
            "email_domain": "zeevang.nl"
        }
    },
    {
        "model": "core.governmentdomain",
        "pk": 455,
        "fields": {
            "name": "zeewolde",
            "email_domain": "zeewolde.nl"
        }
    },
    {
        "model": "core.governmentdomain",
        "pk": 456,
        "fields": {
            "name": "zeist",
            "email_domain": "zeist.nl"
        }
    },
    {
        "model": "core.governmentdomain",
        "pk": 457,
        "fields": {
            "name": "zevenaar",
            "email_domain": "zevenaar.nl"
        }
    },
    {
        "model": "core.governmentdomain",
        "pk": 458,
        "fields": {
            "name": "zoetermeer",
            "email_domain": "zoetermeer.nl"
        }
    },
    {
        "model": "core.governmentdomain",
        "pk": 459,
        "fields": {
            "name": "zoeterwoude",
            "email_domain": "zoeterwoude.nl"
        }
    },
    {
        "model": "core.governmentdomain",
        "pk": 460,
        "fields": {
            "name": "zuidhorn",
            "email_domain": "zuidhorn.nl"
        }
    },
    {
        "model": "core.governmentdomain",
        "pk": 461,
        "fields": {
            "name": "zuidplas",
            "email_domain": "zuidplas.nl"
        }
    },
    {
        "model": "core.governmentdomain",
        "pk": 462,
        "fields": {
            "name": "zundert",
            "email_domain": "zundert.nl"
        }
    },
    {
        "model": "core.governmentdomain",
        "pk": 463,
        "fields": {
            "name": "zwartewaterland",
            "email_domain": "zwartewaterland.nl"
        }
    },
    {
        "model": "core.governmentdomain",
        "pk": 464,
        "fields": {
            "name": "zwijndrecht",
            "email_domain": "zwijndrecht.nl"
        }
    },
    {
        "model": "core.governmentdomain",
        "pk": 465,
        "fields": {
            "name": "zwolle",
            "email_domain": "zwolle.nl"
        }
    }

]
